<?xml version="1.0" encoding="UTF-8"?>
<DataFileEntity>
   <description></description>
   <name>TestData_Login</name>
   <tag></tag>
   <containsHeaders>true</containsHeaders>
   <csvSeperator></csvSeperator>
   <dataFileGUID>a5c50e3c-1db8-4230-9eb6-92afa861339c</dataFileGUID>
   <dataSourceUrl>Data Files/Credential Data.xlsx</dataSourceUrl>
   <driver>ExcelFile</driver>
   <isInternalPath>true</isInternalPath>
   <query></query>
   <secureUserAccount>false</secureUserAccount>
   <sheetName>Sheet1</sheetName>
   <usingGlobalDBSetting>false</usingGlobalDBSetting>
</DataFileEntity>
